<?xml version="1.0" encoding="utf-8"?>
<!-- Generator: Adobe Illustrator 23.0.1, SVG Export Plug-In . SVG Version: 6.00 Build 0)  -->
<svg version="1.1" id="Layer_1" xmlns="http://www.w3.org/2000/svg" xmlns:xlink="http://www.w3.org/1999/xlink" x="0px" y="0px"
	 viewBox="0 0 81.3 78.9" style="enable-background:new 0 0 81.3 78.9;" xml:space="preserve">
<style type="text/css">
	.st0{fill:#FFFFFF;}
</style>
<title>02</title>
<polygon class="st0" points="60.3,41.4 56.2,37.1 35.5,56.8 25.2,46.5 21,50.8 35.4,65.2 "/>
<path class="st0" d="M22,0h-2.7c-3.9,0-7,3.1-7,7v1H11C4.9,8,0,12.9,0,19v48.9c0,6.1,4.9,11,11,11h59.3c6.1,0,11-4.9,11-11V19
	c0-6.1-4.9-11-11-11H69V7c0-3.9-3.1-7-7-7h-2.7c-3.9,0-7,3.1-7,7v1H29V7C29,3.1,25.9,0,22,0C22,0,22,0,22,0z M18.3,7
	c0-0.6,0.4-1,1-1H22c0.6,0,1,0.4,1,1v0v8c0,0.6-0.4,1-1,1h-2.7c-0.6,0-1-0.4-1-1L18.3,7z M75.3,67.9c0,2.8-2.2,5-5,5H11
	c-2.8,0-5-2.2-5-5V34.1h69.3L75.3,67.9z M58.3,7c0-0.6,0.4-1,1-1H62c0.6,0,1,0.4,1,1v8c0,0.6-0.4,1-1,1h-2.7c-0.6,0-1-0.4-1-1
	L58.3,7z M52.3,14v1c0,3.9,3.1,7,7,7H62c3.9,0,7-3.1,7-7v-1h1.3c2.8,0,5,2.2,5,5v9.1H6V19c0-2.8,2.2-5,5-5h1.3v1c0,3.9,3.1,7,7,7h0
	H22c3.9,0,7-3.1,7-7v0v-1H52.3z"/>
</svg>
